Reproducible Research (Project 1)
…
Loading the Data

activity <- read.csv("activity.csv", stringsAsFactors = FALSE)

What is mean total number of steps taken per day?

dailyactivity <- activity %>%
  group_by(date) %>%
  summarise(tot_steps= sum(steps), mean_steps = mean(steps), med_steps = median(steps))

The total, mean and median number of steps is indicated below.

print(dailyactivity)

## # A tibble: 61 x 4
##    date       tot_steps mean_steps med_steps
##    <chr>          <int>      <dbl>     <dbl>
##  1 2012-10-01        NA     NA           NA 
##  2 2012-10-02       126      0.438        0.
##  3 2012-10-03     11352     39.4          0.
##  4 2012-10-04     12116     42.1          0.
##  5 2012-10-05     13294     46.2          0.
##  6 2012-10-06     15420     53.5          0.
##  7 2012-10-07     11015     38.2          0.
##  8 2012-10-08        NA     NA           NA 
##  9 2012-10-09     12811     44.5          0.
## 10 2012-10-10      9900     34.4          0.
## # ... with 51 more rows
…
